{
  "pacotes": {
    "promocoes": {
      "mauricias": {
        "titulo": "LUXURIANTE MAURICIA - LUGARES GARANTIDOS COM A TURKISH AIRLINES",
        "alojamento": "7 noites de estadia no hotel e regime escolhido + transfers in/out | 10  dia(s)",
        "itenerario": {
          "dia1": "Dia 1 Lisboa / Istambul",
          "texto1": "Comparência no aeroporto três horas antes da partida. Assistência nas formalidades de embarque e partida com destino às Maurícias, via Istambul. Refeições e noite a bordo.",
          "dia2": "Dia 2 Istambul / Maurícias",
          "texto2": "Chegada a Istambul (de madrugada), formalidades de trânsito e continuação para as Maurícias. Chegada e transporte para o hotel escolhido. Alojamento.",
          "dia3": "Dia 3 Amurícias",
          "texto3": "Estadia no hotel e regime escolhido.<br>No coração do oceano Índico, a 800 km da costa de Madagáscar, a ilha Maurícia está rodeada de uma barreira de coral, o que faz com que o mar seja calmo e as magníficas praias de água azul e areia branca. Um paraíso onde a exuberante vegetação se mistura com o azul do oceano. Dias inteiramente livres para desfrutar deste paraíso.",
          "dia4": "Dia 4 Maurícias",
          "texto4": "Estadia no hotel e regime escolhido.<br>No coração do oceano Índico, a 800 km da costa de Madagáscar, a ilha Maurícia está rodeada de uma barreira de coral, o que faz com que o mar seja calmo e as magníficas praias de água azul e areia branca. Um paraíso onde a exuberante vegetação se mistura com o azul do oceano. Dias inteiramente livres para desfrutar deste paraíso.",
          "dia5": "Dia 5 Maurícias",
          "texto5": "Estadia no hotel e regime escolhido.<br>No coração do oceano Índico, a 800 km da costa de Madagáscar, a ilha Maurícia está rodeada de uma barreira de coral, o que faz com que o mar seja calmo e as magníficas praias de água azul e areia branca. Um paraíso onde a exuberante vegetação se mistura com o azul do oceano. Dias inteiramente livres para desfrutar deste paraíso.",
          "dia6": "Dia 6 Maurícias",
          "texto6": "Estadia no hotel e regime escolhido.<br>No coração do oceano Índico, a 800 km da costa de Madagáscar, a ilha Maurícia está rodeada de uma barreira de coral, o que faz com que o mar seja calmo e as magníficas praias de água azul e areia branca. Um paraíso onde a exuberante vegetação se mistura com o azul do oceano. Dias inteiramente livres para desfrutar deste paraíso.",
          "dia7": "Dia 7 Maurícias",
          "texto7": "Estadia no hotel e regime escolhido.<br>No coração do oceano Índico, a 800 km da costa de Madagáscar, a ilha Maurícia está rodeada de uma barreira de coral, o que faz com que o mar seja calmo e as magníficas praias de água azul e areia branca. Um paraíso onde a exuberante vegetação se mistura com o azul do oceano. Dias inteiramente livres para desfrutar deste paraíso.",
          "dia8": "Dia 8 Maurícias",
          "texto8": "Estadia no hotel e regime escolhido.<br>No coração do oceano Índico, a 800 km da costa de Madagáscar, a ilha Maurícia está rodeada de uma barreira de coral, o que faz com que o mar seja calmo e as magníficas praias de água azul e areia branca. Um paraíso onde a exuberante vegetação se mistura com o azul do oceano. Dias inteiramente livres para desfrutar deste paraíso.",
          "dia9": "Dia 9 Maurícias / Istambul / Lisboa",
          "texto9": "Pequeno-almoço no hotel. Em hora a combinar localmente, transporte para o aeroporto para formalidades de embarque e partida com destino a Lisboa, via Istambul. Refeições e noite a bordo.",
          "dia10": "Dia 10 Lisboa",
          "texto10": "Chegada.<br>Fim da viagem"
        },
        "condicoesI": "Passagem aérea em classe turística em voo da companhia Turkish Airlines para os percursos Lisboa/Istambul/Maurícias/Istambul/Lisboa: Franquia de 20kg de bagagem; <br> Transporte aeroporto / hotel / aeroporto; <br> 7 noites de estadia no hotel e regime escolhido;<br> Taxas de aeroporto, segurança e combustível (€ 436), sujeitas às alterações legais até à data de emissão dos bilhetes;<br> Assistência no aeroporto no dia da partida;<br> Taxas hoteleiras, de serviço e IVA;",
        "condicoesE": "Passaporte;<br>Extras de caráter pessoal;<br>Tudo o que não estiver devidamente especificado em \"Serviços incluídos\";<br>Despesas de reserva (€29) por processo e não por pessoa.<br>Seguro Multiviagens."
      },
      "portoSeguro": {
        "titulo": "SAFIRA PRAIA HOTEL 4*",
        "alojamento": "Próximo da Praia de Taperapuan e do famoso Axé Moi, este recente hotel oferece piscinas para adultos e crianças, hidromassagem, sauna, restaurante e bar na piscina. Todos os quartos encontram-se equipados com TV LCD, ar condicionado, mini bar, cofre e varanda.",
        "itenerario": {
          "dia1": "Dia 1 Lisboa / Porto Seguro",
          "texto1": "Comparência no aeroporto três horas antes da partida. Assistência nas formalidades de embarque e saída em avião, com destino a Porto Seguro. À chegada, assistência e transporte para o hotel escolhido. Alojamento.",
          "dia2": "Dia 2 a 7 Porto Seguro ou Arraial d'Ajuda",
          "texto2": "Estadia no hotel e regime escolhido. Dias inteiramente livres para atividades de carácter pessoal.",
          "dia3": "Dia 8 Porto Seguro / Salvador / Lisboa",
          "texto3": "Em hora a determinar localmente, transporte para o aeroporto. Assistência nas formalidades de embarque e partida com destino a Lisboa via Salvador. Noite a bordo.",
          "dia4": "Dia 9 Lisboa",
          "texto4": "Chegada.<br>Fim da Viagem."
        },
        "condicoesI": "- Passagem aérea Lisboa / Porto Seguro / Salvador / Lisboa em classe económica;<br>- 20 kg de bagagem;<br>- Transporte aeroporto / hotel / aeroporto; <br>- Estadia de 7 noites no hotel escolhido e regime indicado;<br>- Seguro de viagem;<br>- Taxas hoteleiras, serviço e IVA;<br>- Taxas de aeroporto, segurança e combustível.",
        "condicoesE": "- Passaporte com validade mínima de 6 meses.<br>- Extras de carácter pessoal; <br>- Taxas de turismo locais;<br>- Tudo o que não está devidamente especificado como incluído no programa;<br>- Despesas de reserva por processo."
      },
      "agadir": {
        "titulo": "HOTEL ARGANA AGADIR 4*",
        "alojamento": "De decoração típica marroquina com sumptuosos jardins tropicais e localizado a 500m do centro este recente remodelado hotel é a escolha ideal! Oferece uma praia privada aos seus hospedes, bem como SPA, tenda Mil e Uma Noites, onde poderá vivenciar uma experiência genuinamente marroquina sob as estrelas, 2 bares, 1 snack-bar, 1 restaurante e 1 discoteca. Todos os quartos estão equipados com TV satélite, cofre (mediante pagamento), AC, secador de cabelo e mini-bar.",
        "itenerario": {
          "dia1": "Dia 1 Lisboa / Agadir",
          "texto1": "Comparência no aeroporto 3 horas antes da partida. Assistência nas formalidades de embarque. Partida em avião com destino a Agadir. chegada. Assistência e transporte para o Hotel escolhido. Alojamento.",
          "dia2": "Dia 2 a 7 Agadir",
          "texto2": "Estadia no Hotel e regime indicados. Dias inteiramente livres para passeios e atividades de carácter pessoal. Possibilidade de participação em diversas excursões facultativas organizadas localmente.",
          "dia3": "Dia 8 Agadir / Lisboa",
          "texto3": "Em hora a determinar, transporte para o Aeroporto. Assistência e partida em avião com destino a Lisboa.",
          "dia4": "Dia 9 Lisboa",
          "texto4": "Chegada. <br>Fim da Viagem."
        },
        "condicoesI": "- Passagem aérea em classe turística, no percurso Lisboa ou Porto / Agadir / Lisboa ou Porto;<br>- Franquia de 20kg de bagagem;<br>- Transporte Aeroporto / Hotel / Aeroporto;<br>- 7 noites de alojamento no hotel e regime escolhido;<br>- Seguro de Viagem;<br>- Taxas de Aeroporto, Segurança e Combustível;<br>- Taxas Hoteleiras, de Serviço e IVA.",
        "condicoesE": "- Passaporte com validade de 6 meses;<br>- Taxa de alojamento no valor de eur 12 por pessoa a pagar localmente;<br>- Extras de carácter pessoal e tudo o que não estiver mencionado como incluído no programa;<br>- Despesas Reserva por processo."
      },
      "algarve": {
        "titulo": "HOTEL APARTAMENTO BALAIA ATLÂNTICO 4*",
        "alojamento": "O Hotel Apartamento Balaia Atlântico dispõe de 138 apartamentos elegantes em volta da piscina, numa paisagem de jardins luxuriantes. Estes apartamentos são de tipologia T1, todos equipados com kitchenette, ar condicionado, telefone directo, TV por satélite, rádio, cofre, mini bar e varanda. <br>Este hotel possui um restaurante panorâmico, bar, bar de apoio à piscina, salas de reunião e banquetes, sala de jogos com bilhar, parque infantil e lojas.<br>Oferece também uma piscina exterior, piscina interior, um Health Club com ginásio, jacuzzi, sauna, banho turco, mini-golf, campo de ténis e um campo multiusos.<br>De referir ainda o serviço de câmbios, o aluguer de bicicleta e de carro, assim como o parque de estacionamento e garagem.",
        "itenerario": {
          "dia1": "Dia 1",
          "texto1": "Comparência no hotel escolhido para check-in. Tempo livre para atividades de carácter pessoal.",
          "dia2": "Dia 2 a 5",
          "texto2": "Tempo livre para atividades de carácter pessoal.",
          "dia3": "Dia 6",
          "texto3": "Tempo livre para atividades de carácter pessoal. Check-out do hotel. Fim de programa."
        },
        "condicoesI": "- 5 noites de alojamento.",
        "condicoesE": "- Extras de carácter pessoal e tudo o que não estiver mencionado como incluído no programa;<br>- Despesas de reserva por processo."
      },
      "caraibas": {
        "titulo": "HOTEL BELLEVUE BEACH PARADISE 4*",
        "alojamento": "O Hotel encontra-se idealmente situado frente a uma praia de areia branca, na ilha de Cancún, com vistas sobre as águas turquesa do Mar das Caraíbas a leste, e a isolada Lagoa Nichupté a oeste. O hotel dispõe de três restaurantes, três bares, um teatro para espetáculos ao vivo, e uma bela zona de piscina. O ponto arqueológico de El Rey fica a poucos passos de distância e o aeroporto internacional fica a poucos minutos de carro.",
        "itenerario": {
          "dia1": "Dia 1 Lisboa / Cancun",
          "texto1": "Comparência no Aeroporto 2 horas antes da partida. Assistência e saída em avião, com destino a Cancun. À chegada, assistência e transporte para o hotel escolhido. Alojamento.",
          "dia2": "Dia 2 a 7 Cancun",
          "texto2": "Estadia no Hotel escolhido em regime de tudo incluído. Dias inteiramente livres para atividades de carácter pessoal. Possibilidade de participação em várias excursões facultativas, organizadas localmente.",
          "dia3": "Dia 8 Cancun / Lisboa",
          "texto3": "Em hora a determinar, transporte para o Aeroporto. Assistência e partida em avião, com destino a Lisboa.",
          "dia4": "Dia 9 Lisboa",
          "texto4": "Chegada.<br> Fim da Viagem."
        },
        "condicoesI": "- Passagem aérea em classe turística; <br> - Franquia de 20 kg de bagagem; <br>- Transporte Aeroporto / Hotel / Aeroporto; <br>- 7 noites de estadia em quarto duplo no hotel escolhido em regime de tudo incluído;<br>- Taxas de aeroporto, segurança e combustível;<br>- Seguro de viagem.",
        "condicoesE": "- Gastos com obtenção de passaporte;<br>- Taxa obrigatórias locais;<br>- Despesas de carácter pessoal e tudo o que não estiver devidamente especificado como incluído;<br>- Despesas de reserva por processo."
      },
      "montenegro": {
        "titulo": "HOTEL IBEROSTAR BELLEVUE 4*",
        "alojamento": "O Hotel Iberostar Bellevue está localizado numa área privilegiada de Budva, em Montenegro, a 50 metros da praia de Plaza Becici. Em Budva é possível desfrutar de uma ativa vida noturna e apreciar a arquitetura tipicamente mediterrânica. Situado em frente ao mar, o hotel está cercado de árvores e é a opção perfeita para casais ou famílias com crianças. Nos quartos, com todas as comodidas, prima a simplicidade e a funcionalidade. A gastronomia é uma das maiores atrações do hotel pois tem inúmeras propostas gastronómicas tanto de cozinha local como internacional. Nos bares e terraços do hotel servem-se bebidas nacionais e importadas.",
        "itenerario": {
          "dia1": "Dia 1 Lisboa / Montenegro",
          "texto1": "Comparência no Aeroporto 2 horas antes da partida. Formalidades de embarque e partida com destino a Montenegro. Chegada assistência e transporte para o Hotel escolhido. Alojamento.",
          "dia2": "Dia 2 a 7 Montenegro",
          "texto2": "Estadia no Hotel e regime indicados. Dias livres para atividades de carácter pessoal.",
          "dia3": "Dia 8 Montenegro / Lisboa",
          "texto3": "Em hora a determinar transporte para o Aeroporto. Assistência nas formalidades de embarque e partida com destino a Lisboa. Chegada."
        },
        "condicoesI": "- Passagem aérea Lisboa / Montenegro / Lisboa em classe económica;<br>- Franquia de 20kg de bagagem;<br>- Transfers aeroporto / hotel / aeroporto;<br>- Estadia de 7 noites no hotel e regime escolhido;<br>- Seguro de viagem;<br>- Taxas hoteleiras, de serviço e IVA;<br>- Taxas de aeroporto, segurança e combustível.",
        "condicoesE": "- Extras de carácter pessoal;<br>- Tudo o que não estiver devidamente especificado como incluído no programa;<br>- Despesas de reserva por processo."
      }
    },
    "cruzeiros": {
      "caraibas": {
        "alojamento": "Camarote Com Varanda Bella",
        "itenerario": {
          "dia1": "Dia 1 Miami",
          "texto1": "Dia 2 Em Navegação",
          "dia2": "Dia 2 Em Navegação",
          "dia3": "Dia 3 Georgetown",
          "texto3": "Grand Cayman é a maior das Ilhas Caimão, com uma área de 76 quilómetros quadrados e uma população de cerca de 30.000. Ela é conhecida em todo o mundo pela sua famosa Seven Mile Beach. Para os madrugadores, um passeio matinal ao longo da praia é uma experiência maravilhosa. As praias de Grand Cayman são espetaculares e apreciadas por milhares de visitantes a cada ano. A economia da ilha é fortemente dependente do turismo, com o máximo de 75% do PIB da ilha a ser gerado pelos turistas. Além de numerosas praias, existem muitas atrações da ilha. Grand Cayman e as Ilhas Caimão, em geral, são muito conhecidas pelo mergulho e snorkel. A ilha possui muitos recifes e paredes, algumas das quais apenas acessíveis por mar.",
          "dia4": "Dia 4 Cozumel",
          "texto4": "Cozumel é a maior ilha do México, situada a apenas 12 milhas ao largo da costa da Península de Yucatan. Cozumel mede 28 quilómetros de extensão e 10 quilómetros de largura, e é mundialmente conhecida pelas suas deslumbrantes praias de areia branca e pela clareza notável dos vários tons de azul do mar das Caraíbas onde se situa. O clima é subtropical e os povos nativos de Cozumel são de ascendência maia.",
          "dia5": "Dia 5 Em Navegacao",
          "dia6": "Dia 6 Nassau",
          "texto6": "O porto de Nassau está localizado na parte nordeste da ilha de New Providence. A ilha é plana, coberta por pinheiros e bosques, lagos e pântanos. No Norte há belas praias, portos turísticos, campos de golfe e muitos outros locais de lazer e tempo livre. Existe também uma cadeia de colinas, que atingem a altura máxima de 41 metros. Nassau é a capital e é um importante centro financeiro internacional e hospeda também conferências a nível mundial. Premiado por seu porto de abrigo, a cidade fez história e preservou-se maravilhosamente em mansões vitorianas, catedrais, fortalezas do século XVIII e a Escada da Rainha cujos 66 degraus levam a um ponto de vista não deve ser desperdiçada. Uma abundância de elegantes hotéis resort, casinos, shows de cabaret, e docas fazem de Nassau um vibrante centro de entretenimento, bem como de comércio.",
          "dia7": "Dia 7 Miami",
          "texto7": "Chegada. <br>Fim de Viagem"
        },
        "condicoes": "Todas as camas podem ser configuradas como simples ou duplas a pedido. As instalações incluem: Armário espaçoso. Casa de Banho com chuveiro ou banheira. Secador de cabelo. Toalhas. Champô e gel de banho. Canais de TV em inglês. TV interativa. Telefone fixo. ligação à Internet através do próprio computador portátil ou tablet (sujeito a taxa de uso). Mini-bar e cofre. Ar condicionado. área de superfície de 17 metros quadrados."
      },
      "noruega": {
        "alojamento": "Camarote Interior Bella",
        "itenerario": {
          "dia1": "Dia 1 Kiel, Alemanha",
          "texto1": "Kiel é uma cidade no norte da Alemanha, capital do estado de Schleswig-Holstein. Localizada no Mar Báltico, a cidade foi durante muito tempo a principal base naval do país até que as instalações foram desmanteladas após a Segunda Guerra Mundial. Kiel é famosa por eventos de vela. Todos os anos o \"Kieler Woche\" é realizado (primeira vez em 1882), uma série de regatas de vela com uma moldura cultural. Em 1936 e 1972, quando os Jogos Olímpicos foram realizados em Berlim e Munique, respetivamente, as competições olímpicas de iate foram realizados em Kiel.",
          "dia2": "Dia 2 Copenhaga",
          "texto2": "Copenhaga é a capital mais vibrante e acessível da Escandinávia, e uma das mais amigáveis cidades da Europa. Pequena e acolhedora, é um lugar onde as pessoas ao invés de carros definem o ritmo, evidenciado pelo grande número de esplanadas e do número de vias pedestres e de bicicletas. Receptiva e relaxada, ela também oferece uma variedade de entretenimento que desmente a sua dimensão relativamente modesta. Atrações culturais, incluindo os principais museus nacionais, uma seleção de galerias de arte, uma imensa variedade de eventos artísticos e um dos cenários mais interessantes do cinema europeu.",
          "dia3": "Dia 3 Em Navegação",
          "dia4": "Dia 4 Hellesylt/Geiranger",
          "texto4": "Hellesylt é um pequeno e bonito porto de ferries no magnífico Geirangerfjord. A queda de água de Hellesylt e os rochedos que a ladeiam mergulham no Horindalsvannet, o lago mais profundo da Europa - cerca de 2.000 pés. A excursão entre Hellesylt e Geiranger oferece um vislumbre de algumas das paisagens de montanha mais espetaculares da Noruega.",
          "dia5": "Dia 5 Flaam, Noruega",
          "dia6": "Dia 6 Stavanger",
          "texto6": "Fundada no século VIII e uma das mais antigas cidades norueguesas, Stavanger está situado junto ao Byfjord, um braço do Stavangerfjordin.. Ecos da sua orgulhosa herança no meio das ruas de paralelepípedos evocativas da Gamle (Antiga) Stavanger, cujas casas caiadas de branco do século XVIII são provavelmente a melhor preservada comunidade de casas de madeira no norte da Europa.",
          "dia7": "Dia 7 Em Navegação",
          "dia8": "Dia 8 Kiel, Alemanha"
        },
        "condicoes": "Camas de solteiro que podem ser convertidas em camas de casal, mediante pedido. <br>Nota: este não é sempre possível quando as cabines são ocupados por passageiros com deficiência. <br>As instalações incluem: Armário espaçoso. Casa de banho com chuveiro. Secador de cabelo. Toalhas. Champô e gel de banho. TV interativa. Canais de TV em inglês. Telefone fixo. ligação à Internet através do seu computador portátil ou tablet (sujeito a taxa de uso). Mini-bar e cofre. Ar condicionado."
      },
      "disney": {
        "alojamento": "Não se encontra disponivel",
        "itenerario": "Não se encontra disponivel",
        "condicoes": "Não se encontra disponivel"
      },
      "veneza": {
        "alojamento": "Cabine interior",
        "itenerario": {
          "dia1": "Dia 1 e 2 Venice, Italy",
          "dia3": "Dia 3 Dubrovnik, Croatia",
          "dia4": "Dia 4 Em Navegacao",
          "dia5": "Dia 5 Rome (Civitavecchia), Italy",
          "dia6": "Dia 6 Florence/Pisa(Livorno),italy",
          "dia7": "Dia 7 Provence (Toulon), France",
          "dia8": "Dia 8 Barcelona, Spain"
        },
        "condicoes": "Janela*, Sala de Estar**, TV LCD-HD interactiva de 23 polegadas, Duas camas baixas convertíveis num queen (execepto quando indicado), Serviço de quarto 24 horas, Dupla voltagem 110/220 AC, Quatro almofadas para cada cabine, Roupões de banho, Toalhas 100% algodão, Acessórios de casa-de-banho e secador de cabelo, Serviço de toalhas de praia, Espaço para guardar os seus bens na casa-de-banho e no guarda-roupa, Serviço de lavandaria."
      },
      "grecia": {
        "alojamento": "Inside",
        "itenerario": {
          "dia1": "Dia 1 Venice, Italy",
          "texto1": "Não há outro lugar como Veneza, de certeza o mais romântico no mundo. Uma cidade construída sobre canais, com o gótico fabuloso e arquitetura renascentista caracterizada por Palácio de Doge e da Praça de São Marcos. Explore os canais de gôndola, passe sob a famosa Ponte dos Suspiros, ou visitar uma fábrica de vidro onde um mestre artesão demonstra a arte de soprar vidro",
          "dia2": "Dia 2 Zadar, Croatia",
          "dia3": "Dia 3 Split, Croatia",
          "texto3": "Split é um dos portos mais incríveis do mar Adriático e da segunda maior cidade da Croácia. Não só este porto, com cerca de 1700 anos de idade, tem um leque alargado de monumentos históricos, museus, galerias, de onde pode partir em visita das ilhas sonhadoras do Adriático, que ostentam alguns das cenários mais idilicos do mundo.",
          "dia4": "Dia 4 Em Navegação",
          "dia5": "Dia 5 Santorini, Greece",
          "texto5": "Parte de um vulcão submerso, num dos topos, encontra-se a ilha de Santorini. Aventure-se em terra, até à falésia idílica onde se situa a cidade de Fira, e percorra dos degraus da escada, que sobe parede acima desta cratera. A cidade de Fira pode ser alcançada a pé, de burro ou por teleférico. Seja qual for o modo escolhido da subida, a vista final, no topo da falésia, é espetacular. Faça um passeio pelas ruas, repletas de terraços, de edifícios brancos lavados em ruas de comercio com elegantes lojas e restaurantes, ou visite ainda uma das muitas igrejas de cúpula, espalhadas pela região.",
          "dia6": "Dia 6 Athens (Piraeus), Greece",
          "texto6": "Ao chegar a Pireus, invista o seu tempo em Atenas, onde a civilização como a conhecemos nos dias de hoje começou. O suprassumo mais poderoso ou o ex-libiris da Grécia antiga é o Parthenon, situado no topo da Acrópole e abaixo, na Plaka repleta de vida, exibe-se moderna e movimentada cidade de Atenas.",
          "dia7": "Dia 7 Mykonos, Greece",
          "texto7": "Uma Ilha mágica e ensolarada, um postal de visita grego, rodeada por águas cristalinas e salpicada com as tradicionais casas caiadas de branco, moinhos de vento e as famosas cúpulas das suas capelas, num contraste espetacular com o azul vivo do céu Mediterrâneo.",
          "dia8": "Dia 8 Em Navegação",
          "dia9": "Dia 9 Corfu, Greece",
          "texto9": "Desde Ulisses a Napoleão, todos passaram por aqui, e sem dúvida que todos ficaram maravilhados com a beleza física desta ilha. É difícil melhorar a paisagem de Corfu, e o melhor é mesmo apreciar uma viagem de cortar a respiração ao longo da costa, até ao Palácio Achilleion.",
          "dia10": "Dia 10 Em Navegação",
          "dia11": "Dia 11 Venice, Italy"
        },
        "condicoes": "Camarote standard oferece duas camas twin, uma casa-de-banho privativa e todas as comodidades das nossas cabines standard. Note que esta é uma categoria garantida e sem número de camarote específico, serão atribuídos até os passageiros estarem a bordo ou um pouco antes."
      }
    },
    "disney": {
      "disneyParis": {
        "alojamento": "Não se encontra disponível.",
        "itenerario": "Não se encontra disponível.",
        "condicoes": "Não se encontra disponível."
      },
      "disneyPrimavera": {
        "titulo": "DISNEYS HOTEL CHEYENNE 2*",
        "alojamento": "nspirado na temática dos antigos filmes de cowboys, o Disney’s Hotel Cheyenne, constituído por 14 edifícios, recria o ambiente de uma típica aldeia do Velho Oeste. Dispõe de 1000 quartos, todos equipados com cama de casal, beliche para as crianças, telefone, TV com canais internacionais, rádio, ventilador de tecto e cofre.<br>Este hotel possui o restaurante Chuckwagon com serviço buffet, o bar The Red Garter Saloon, uma loja de recordações Disney, assim como passeios de pónei (custo adicional), sala de jogos de vídeo Nevada Game Arcade, área de actividades Little Sheriff's para crianças e parque infantil.<br>De referir ainda a possibilidade de tirar fotos com as fantásticas personagens da Disney.",
        "itenerario": {
          "dia1": "Dia 1 Disneyland® Resort Paris",
          "texto1": "Comparência no hotel escolhido para check-in. O quarto estará disponível a partir das 15h00. Caso a chegada ao hotel seja antes desta hora poderá guardar as suas malas gratuitamente na sala de depósito de bagagens do hotel. Instalação e restante dia inteiramente livre para usufruir do acesso livre a ambos os parques.",
          "dia2": "Dia 2 Disneyland® Resort Paris",
          "texto2": "Estadia no hotel escolhido no Disneyland Resort Paris no regime indicado. Acesso aos parques Disney durante a totalidade da estadia, incluindo a utilização das atrações que os diversos recintos dos Parques lhe oferecem.",
          "dia3": "Dia 3 Disneyland® Resort Paris",
          "texto3": "Pequeno-almoço. Check out até às 11h00. Caso pretenda aceder aos parques depois desta hora poderá guardar as suas malas gratuitamente na sala de depósito de bagagens do hotel. Restante dia livre para usufruir do acesso livre a ambos os parques. Fim dos serviços."
        },
        "condicoes": {
          "condicoesI": "- Estadia de 02 noites no hotel escolhido em quarto duplo standard em regime de alojamento e pequeno-almoço;<br>- Entradas em ambos os parques para a totalidade da estadia (3 dias);<br>- Crianças menores de 7 anos não pagam estadia e entradas;<br>- Taxas hoteleiras, serviço e IVA.",
          "condicoesE": "- Extras de carácter pessoal;<br>- Tudo o que não estiver mencionado como incluído no programa;<br>- Despesas de reserva por processo."
        }
      },
      "disneyInverno": {
        "alojamento": "Não se encontra disponível.",
        "itenerario": "Não se encontra disponível.",
        "condicoes": "Não se encontra disponível."
      },
      "disneyVerao": {
        "titulo": "DISNEYS HOTEL CHEYENNE 2*",
        "alojamento": "nspirado na temática dos antigos filmes de cowboys, o Disney’s Hotel Cheyenne, constituído por 14 edifícios, recria o ambiente de uma típica aldeia do Velho Oeste. Dispõe de 1000 quartos, todos equipados com cama de casal, beliche para as crianças, telefone, TV com canais internacionais, rádio, ventilador de tecto e cofre.<br>Este hotel possui o restaurante Chuckwagon com serviço buffet, o bar The Red Garter Saloon, uma loja de recordações Disney, assim como passeios de pónei (custo adicional), sala de jogos de vídeo Nevada Game Arcade, área de actividades Little Sheriff's para crianças e parque infantil.<br>De referir ainda a possibilidade de tirar fotos com as fantásticas personagens da Disney.",
        "itenerario": {
          "dia1": "Dia 1 Disneyland® Resort Paris",
          "texto1": "Comparência no hotel escolhido para check-in. O quarto estará disponível a partir das 15h00. Caso a chegada ao hotel seja antes desta hora poderá guardar as suas malas gratuitamente na sala de depósito de bagagens do hotel. Instalação e restante dia inteiramente livre para usufruir do acesso livre a ambos os parques.",
          "dia2": "Dia 2 Disneyland® Resort Paris",
          "texto2": "Estadia no hotel escolhido no Disneyland Resort Paris no regime indicado. Acesso aos parques Disney durante a totalidade da estadia, incluindo a utilização das atrações que os diversos recintos dos Parques lhe oferecem.",
          "dia3": "Dia 3 Disneyland® Resort Paris",
          "texto3": "Pequeno-almoço. Check out até às 11h00. Caso pretenda aceder aos parques depois desta hora poderá guardar as suas malas gratuitamente na sala de depósito de bagagens do hotel. Restante dia livre para usufruir do acesso livre a ambos os parques. Fim dos serviços."
        },
        "condicoes": {
          "condicoesI": "- Estadia de 02 noites no hotel escolhido em quarto duplo standard em regime de alojamento e pequeno-almoço;<br>- Entradas em ambos os parques para a totalidade da estadia (3 dias);<br>- Crianças menores de 7 anos não pagam estadia e entradas;<br>- Taxas hoteleiras, serviço e IVA.",
          "condicoesE": "- Extras de carácter pessoal;<br>- Tudo o que não estiver mencionado como incluído no programa;<br>- Despesas de reserva por processo."
        }
      }
    },
    "praias": {
      "salvador": {
        "titulo": "BRASIL - SALVADOR - OFERTA ESPECIAL",
        "alojamento": "Estadia de 7 noites no hotel, em regime de APA e transfers in e out | 9  dia(s) <br><br>Hotel Vila Galé Salvador - Verão 2016!<br><br>Primeira capital do País, Salvador reune presente, passado, cores, sabores, culturas, credos e raças, que fazem desta cidade multicultural resultado da fusão das raízes negra, índigena e portuguesa. Deixamos-lhe uma proposta para 7 noites de estadia com os voos TAP. Não espere... Reserve já!",
        "itenerario": {
          "dia1": "Dia 1 Lisboa / Salvador",
          "texto1": "Comparência no aeroporto internacional de Lisboa duas horas antes da partida. Assistência nas formalidades de embarque e partida em avião com destino a Salvador. Chegada, assistência e transporte para o hotel escolhido.",
          "dia2": "Dia 2 a 7 Salvador",
          "texto2": "Estadia no hotel e regime escolhidos. Dias inteiramente livres para actividades de carácter pessoal. Possibilidade de efectuar diversas excursões facultativas organizadas localmente.",
          "dia3": "Dia 8 Salvador / Lisboa",
          "texto3": "Pequeno-almoço no hotel. Em hora a determinar localmente, transporte para o aeroporto. Assistência nas formalidades de embarque e partida em avião com destino a Lisboa.",
          "dia4": "Dia 9 Lisboa",
          "texto4": "Chegada ao aeroporto internacional de Lisboa. <br>Fim da viagem"
        },
        "condicoes": {
          "condicoesI": "-Passagem aérea em classe turística em voos de allotment da TAP Portugal para o percurso Lisboa/Salvador/Lisboa;<br>-Franquia de 32kg de bagagem;<br>-Taxas de aeroporto, segurança e combustível (€ 388), sujeitas às alterações legais até à data de emissão dos bilhetes;<br>-Transporte aeroporto / hotel / aeroporto;<br>-7 noites de estadia no hotel e regime escolhidos;<br>-Assistência no aeroporto no dia da partida;<br>-Taxas hoteleiras, de serviço e IVA;<br>-Seguro Multiviagens.",
          "condicoesE": "-Passaporte;<br>-Extras de caráter pessoal;<br>-Tudo o que não estiver devidamente especificado em \"Serviços incluídos\";<br>-Despesas de reserva (€29) por processo e não por pessoa."
        }
      },
      "caboVerde": {
        "titulo": "ILHA DO SAL - ESPECIAL FÉRIAS DE VERÃO!",
        "alojamento": "Em primeira linha na praia de Santa Maria, mesmo ao lado do Oásis Novorizonte. A 150 metros do centro da vila de Santa Maria. Dispõe de 173 quartos standard, 2 restaurantes, 2 bares, 1 piscina de água doce, 1 piscina de água salgada, Rent-a-car, Internet, parque infantil, sala de jogos, serviço de lavandaria, serviço de toalhas de praia, sala de conferências totalmente equipada com capacidade para 190 pessoas, serviço médico, loja de artesanato e bar de apoio na praia.",
        "itenerario": {
          "dia1": "Dia 1 Lisboa / Ilha do Sal",
          "texto1": "Comparência no aeroporto 3 horas antes da partida. Assistencia nas formalidades de embarque. Partida em avião com destino à Ilha do Sal. Chegada. Assistencia e transporte para o Hotel escolhido. Alojamento.",
          "dia2": "Dia 2 a 7 Ilha do Sal",
          "texto2": "Estadia no Hotel e no regime escolhidos. Dias inteiramente livres para passeios e atividades de carácter pessoal. Possibilidade de participação em diversas excursões facultativas organizadas localmente.",
          "dia3": "Dia 8 Ilha da Sal / Lisboa",
          "texto3": "Pequeno-almoço e Check-out do hotel até às 11h00. Restante dia livre para atividades de carácter pessoal. Em hora a determinar locamente, transporte para o Aeroporto para embarque em voo com destino a Lisboa. Chegada e fim dos nossos serviços."
        },
        "condicoes": {
          "condicoesI": "- Passagem aérea em classe turística;<br>- Visto Turístico;<br>- Franquia de 20kg de bagagem; <br>- Transporte aeroporto / hotel / aeroporto com assistência local; <br>- Estadia de 7 noites no hotel escolhido em regime de tudo incluído;<br>- Taxas de Aeroporto, Segurança e Combustivel;<br>- Seguro Multiviagens;",
          "condicoesE": "- Atenção: Obrigatório enviar vistos com pelo menos 5 dias úteis antes da data de partida.<br>- Taxa turística de eur 2 pessoa e noite, aplicável a maiores de 15 anos, paga localmente no hotel;<br>- Passaporte com a validade de 6 meses;<br>- Taxas locais;<br>- Extras de carácter pessoal e tudo o que não estiver mencionado como incluído no programa;<br>- Despesas Reserva por processo."
        }
      },
      "caraibas": {
        "titulo": "HOTEL NATURA PARK BEACH ECO RESORT & SPA 4*",
        "alojamento": "O Hotel Natura Park Beach Eco Resort & Spa é uma opção económica para quem pretende desfrutar de umas férias diferentes em completa harmonia com a natureza. Exuberantes jardins tropicais repletos de pássaros exóticos intercalam-se com as lagoas e pontes que formam o caminho até à praia. A arquitetura do hotel utiliza recursos naturais como pedra, coco, madeira e cana para criar um ambiente totalmente ecológico, que se sobrepõe ao conforto de um hotel mais tradicional. Dispõe de 510 quartos, 4 restaurantes (1 buffet e 3 à-la-carte), 6 bares, piscina exterior de água doce para adultos e crianças, toalhas para piscina, ginásio, sauna, área ecológica, facilidades para a prática de desportos terrestres e aquáticos, babysitting, miniclube, lojas de souvenirs, salas de conferências, serviço médico, lavandaria e acesso wi-fi (mediante pagamento).",
        "itenerario": {
          "dia1": "Dia 1 Lisboa / Punta Cana",
          "texto1": "Comparência no Aeroporto 2 horas antes da partida. Assistência e saída em avião, com destino a Punta Cana. À chegada, assistência e transporte para o hotel escolhido. Alojamento.",
          "dia2": "Dia 2 a 7 Punta Cana",
          "texto2": "Estadia no Hotel escolhido em regime de tudo incluído. Dias inteiramente livres para atividades de carácter pessoal. Possibilidade de participação em várias excursões facultativas, organizadas localmente.",
          "dia3": "Dia 8 Punta Cana / Lisboa",
          "texto3": "Em hora a determinar, transporte para o Aeroporto. Assistência e partida em avião, com destino a Lisboa.",
          "dia4": "Dia 9 Lisboa",
          "texto4": "Chegada. <br>Fim da viagem."
        },
        "condicoes": {
          "condicoesI": "- Passagem aérea em classe turística;<br>- Visto Turístico;<br>- Franquia de 20kg de bagagem; <br>- Transporte aeroporto / hotel / aeroporto com assistência local; <br>- Estadia de 7 noites no hotel escolhido em regime de tudo incluído;<br>- Taxas de Aeroporto, Segurança e Combustivel;<br>- Seguro Multiviagens;",
          "condicoesE": "- Gastos com obtenção de passaporte;<br>- Taxa obrigatórias locais, vistos de entrada;<br>- Despesas de carácter pessoal e tudo o que não estiver devidamente especificado como incluído;<br>- Despesas de reserva por processo."
        }
      },
      "espanha": {
        "alojamento": "Não incluído.",
        "itenerario": {
          "dia1": "Na viagem...",
          "texto1": "Ciudade Jardin, Can Pastilla e El Arenal são alguns dos locais mais turísticos de Palma de Maiorca. Nestes locais pode desfrutar das suas praias, estando próximo do centro da cidade de Palma de Maiorca onde pode aproveitar as várias atrações."
        },
        "condicoes": {
          "condicoesI": "- Passagem aérea em classe turística;<br>- Visto Turístico;<br>- Franquia de 20kg de bagagem; <br>- Transporte aeroporto / hotel / aeroporto com assistência local; <br>- Estadia de 7 noites no hotel escolhido em regime de tudo incluído;<br>- Taxas de Aeroporto, Segurança e Combustivel;<br>- Seguro Multiviagens;",
          "condicoesE": "- Extras de carácter pessoal;<br>-Tudo o que não estiver devidamente especificado como incluído no programa;<br>-Despesas Reserva por processo."
        }
      },
      "exoticas": {
        "titulo": "MALDIVAS - LUGARES GARANTIDOS COM A EMIRATES",
        "alojamento": "Holiday Island Resort & SPA <br> 7 noites de estadia no hotel e regime escolhido + transfers in/out | 9  dia(s)",
        "itenerario": {
          "dia1": "Dia 1 Lisboa / Dubai",
          "texto1": "Comparência no aeroporto três horas antes da partida. Assistência nas formalidades de embarque e partida com destino a Malé, via Dubai. Refeições e noite a bordo.",
          "dia2": "Dia 2 Dubai / Malé",
          "texto2": "Chegada a Dubai (de madrugada), formalidades de trânsito e continuação para Malé. Chegada e transporte para o cais para embarque em lancha até ao hotel escolhido (dependendo do hotel escolhido, o transporte poderá ser em lancha ou em hidroavião). Chegada e alojamento.",
          "dia3": "Dia 3 a 8 Malé",
          "texto3": "Estadia no hotel e regime escolhido. <br>Dias inteiramente livres para desfrutar das praias reluzentes, lagoas azul-turquesa e recifes de corais repletos de peixes de imensas cores, fazendo das Maldivas um paraíso tropical único no mundo.",
          "dia4": "Dia 9 Malé / Dubai / Lisboa",
          "texto4": "Pequeno-almoço no hotel. Em hora a combinar localmente, transporte para o cais para regressar a Malé. Continuação para o aeroporto para formalidades de embarque e partida com destino a Lisboa, via Dubai. Chegada.<br>Fim da viagem."
        },
        "condicoes": {
          "condicoesI": "- Passagem aérea em classe turística;<br>- Visto Turístico;<br>- Franquia de 20kg de bagagem; <br>- Transporte aeroporto / hotel / aeroporto com assistência local; <br>- Estadia de 7 noites no hotel escolhido em regime de tudo incluído;<br>- Taxas de Aeroporto, Segurança e Combustivel;<br>- Seguro Multiviagens;",
          "condicoesE": "- Passaporte;<br>-Extras de caráter pessoal;<br>-Tudo o que não estiver devidamente especificado em \"Serviços incluídos\";<br>-Despesas de reserva (€29) por processo e não por pessoa."
        }
      },
      "saoTome": {
        "titulo": "HOTEL MIRAMAR BY PESTANA 4*",
        "alojamento": "O Hotel Miramar by Pestana dispõe de 65 quartos, incluindo 5 suites (1 Presidencial) e 6 suites juniores, todos equipados com ar condicionado, telefone, TV via satélite, mini bar e varanda.<br>Este hotel possui o restaurante “Le Baron” com cozinha regional, portuguesa e internacional, o “Bar Barracuda” com esplanada, o café “Esplanada Passante”, o bar “Príncipe” no jardim do hotel (junto à piscina) e uma sala de reuniões e banquetes.<br>Oferece também uma ampla piscina com ilha e cascatas de água, rodeada por um jardim exótico, assim como a possibilidade de realizar cocktails, banquetes e buffets no jardim.<br>De referir ainda o serviço de Internet Wireless nas áreas públicas, o aluguer de carro, excursões e o serviço de transfer.",
        "itenerario": {
          "dia1": "Dia 1 Lisboa / Ilha de São Tomé",
          "texto1": "Comparência no aeroporto 3 horas antes da partida (tendo em conta a hora de saída do voo, a comparência no aeroporto de Lisboa deverá ser feita na sexta-feira à noite). Assistência nas formalidades de embarque e partida com destino a São Tomé. Chegada, formalidades alfandegárias, assistência e transporte para o hotel escolhido. Instalação e alojamento.",
          "dia2": "Dia 2 a 7 Ilha de São Tomé",
          "texto2": "Estadia no hotel e regime escolhido. Dias inteiramente livres para actividades de carácter pessoal. Possibilidade de efectuar diversas excursões facultativas e organizadas localmente pelo nosso agente.",
          "dia4": "Dia 8 Ilha de São Tomé / Lisboa",
          "texto4": "Pequeno-almoço. Em hora a determinar, transporte para o aeroporto. Partida com destino a Lisboa. Chegada ao aeroporto Internacional de Lisboa."
        },
        "condicoes": {
          "condicoesI": "- Passagem aérea em classe turística;<br>- Visto Turístico;<br>- Franquia de 20kg de bagagem; <br>- Transporte aeroporto / hotel / aeroporto com assistência local; <br>- Estadia de 7 noites no hotel escolhido em regime de tudo incluído;<br>- Taxas de Aeroporto, Segurança e Combustivel;<br>- Seguro Multiviagens;",
          "condicoesE": "- Passaporte válido;<br>- Taxa Turistica a pagar localmente no Aeroporto de São Tomé, aquando da saída (Aprox. eur 18,00 );<br>- Extras de carácter pessoal e tudo o que não estiver devidamente especificado como incluído no programa;<br>- Despesas Reserva por processo."
        }
      }
    },
    "escapadinhas": {
      "beiraMar": {
        "titulo": "HOTEL MIRAMAR SUL 4*",
        "alojamento": "O Hotel Miramar Sul dispõe de 62 quartos com vista mar, incluindo 53 quartos duplos, 8 suites e 1 suite presidencial. Todos os quartos estão equipados com ar condicionado, TV LCD por cabo, Internet Wi-Fi, telefone de linha direta, cofre, minibar Ecológico, secador de cabelo e varanda com cadeiras exteriores.<br>Neste hotel é possível encontrar o restaurante Atlântico View com vista panorâmica para o Oceano Atlântico e uma culinária que une a inovação da gastronomia nacional e aposta na excelência da gastronomia internacional, o bar Panorâmico que serve snacks e bebidas e possui uma mesa de snooker (custo adicional) e o bar Ocean’s junto à piscina (disponível no Verão).<br>Oferece também 5 salas de reuniões e banquetes com capacidade para 240 pessoas, uma piscina exterior com serviço de bar e espreguiçadeiras (utilização gratuita), uma piscina para crianças, uma piscina interior climatizada, campo de minigolfe e Kids Club (disponível no Verão).<br>De referir ainda o serviço de receção 24 horas, serviço de lavandaria, Internet Wi-Fi em todo o hotel, computador de utilização gratuita junto à receção, o transporte de cortesia do hotel (mediante marcação prévia) e o parque de estacionamento privativo.",
        "itenerario": {
          "dia1": "Dia 1",
          "texto1": "Comparência no hotel indicado para check-in. Tempo livre para atividades de caráter pessoal.",
          "dia2": "Dia 2",
          "texto2": "Pequeno-almoço no hotel. Check-out do hotel. Fim de programa."
        },
        "condicoes": {
          "condicoesI": "- 1 noite de alojamento no hotel com pequeno-almoço;<br>- Jantar 7 experiências (ementa de degustação para duas pessoas com bebidas da seleção do hotel incluídas);<br>- Late check-out (mediante disponibilidade).",
          "condicoesE": "- Extras de caráter pessoal e tudo o que não estiver indicado como incluído no programa;<br>- Despesas de reserva por processo."
        }
      },
      "romance": {
        "titulo": "CASA DO VALE HOTEL 3*",
        "alojamento": "O Casa do Vale Hotel é o mais recente Hotel da cidade de Évora, classificada pela Unesco como Património da Humanidade. Localizado a apenas 5 minutos do centro histórico da cidade de Évora e inserido numa paisagem tipicamente alentejana, o Casa do Vale Hotel é assim o local ideal para desfrutar da imensa riqueza cultural e natural do Alentejo, ao mesmo tempo que convive com simpatia das suas pessoas e usufrui do conforto dos seus quartos e suites. Pode também saborear uma deliciosa refeição típica do Alentejo, ou realizar o seu evento, no restaurante de cozinha regional do Casa do Vale Hotel, com capacidade até 80 pessoas. Dentro e fora do Casa do Vale Hotel, existem também muitas possibilidades para relaxar ou para fazer desporto. Dependendo da sua preferência em termos de actividades, é-lhe disponibilizada uma refrescante piscina exterior, integrada num ambiente campestre e tranquilo, um Campo Polidesportivo e também várias actividades que podem ser realizadas na área.",
        "itenerario": {
          "dia1": "Dia 1",
          "texto1": "Comparência no hotel indicado para check-in. Tempo livre para atividades de caráter pessoal.",
          "dia2": "Dia 2",
          "texto2": "Pequeno-almoço no hotel. Check-out do hotel. Fim de programa."
        },
        "condicoes": {
          "condicoesI": "- 1 noite de alojamento no hotel com pequeno-almoço;<br>- Jantar 7 experiências (ementa de degustação para duas pessoas com bebidas da seleção do hotel incluídas);<br>- Late check-out (mediante disponibilidade).",
          "condicoesE": "- Extras de caráter pessoal e tudo o que não estiver indicado como incluído no programa;<br>- Despesas de reserva por processo."
        }
      },
      "sabores": {
        "titulo": "CASA DA ÍNSUA HOTEL 5*",
        "alojamento": "A Casa da Ínsua é um hotel de charme 5 estrelas com um ambiente ímpar. É ideal para quem procura um lugar tranquilo fora da cidade para recuperar energias ou para passar momentos memoráveis em família. Preparámos um programa de 1 noite com pequeno-almoço, provas de vinhos e visita. Reserve Já!",
        "itenerario": {
          "dia1": "Dia 1",
          "texto1": "Comparência no hotel escolhido para check-in. Tempo livre para atividades de caráter pessoal.",
          "dia2": "Dia 2",
          "texto2": "Tempo livre para atividades de caráter pessoal. Check-out do hotel. Fim de programa."
        },
        "condicoes": {
          "condicoesI": "- 1 noite de alojamento no hotel com pequeno-almoço;<br>- Jantar 7 experiências (ementa de degustação para duas pessoas com bebidas da seleção do hotel incluídas);<br>- Late check-out (mediante disponibilidade).",
          "condicoesE": "- Extras de caráter pessoal e tudo o que não estiver indicado como incluído no programa;<br>- Despesas de reserva por processo."
        }
      },
      "serra": {
        "titulo": "HOTEL SERRA DA ESTRELA 4*",
        "alojamento": "O Hotel Serra da Estrela é o hotel mais alto de Portugal, situado na pitoresca aldeia de montanha das Penhas da Saúde. O hotel está situado a poucos quilómetros das estações de autocarro e comboio. O Hotel Serra da Estrela dispõe de 79 quartos insonorizados, incluindo 3 suites, 8 quartos triplos e quartos para pessoas com mobilidade condicionada. Todos os quartos estão equipados com ar condicionado, aquecimento central, telefone directo, TV por satélite e cofre. Este hotel possui restaurante, bar, salas de reunião e banquetes, sala de jogos com bilhar e dardos, sala de estar com TV, parque infantil, campo de ténis e um agradável jardim. De referir ainda o serviço de câmbios, o aluguer de bicicleta e carro e o parque de estacionamento privado.",
        "itenerario": {
          "dia1": "Dia 1",
          "texto1": "Comparência no hotel escolhido para check-in. Tempo livre para atividades de carácter pessoal",
          "dia2": "Dia 2 e 3",
          "texto2": "Tempo livre para atividades de carácter pessoal.",
          "dia3": "Dia 4",
          "texto3": "Tempo livre para atividades de carácter pessoal. Check-out do hotel. Fim de programa."
        },
        "condicoes": {
          "condicoesI": "- 3 noites de alojamento com pequeno-almoço;<br>- Oferta de Forfait de um dia na Estância de Ski da Serra da Estrela.",
          "condicoesE": "- Extras de caráter pessoal e tudo o que não estiver indicado como incluído no programa;<br>- Despesas de reserva por processo."
        }
      },
      "spa": {
        "titulo": "ÁGUAS DO GERÊS HOTEL, TERMAS & SPA 3ª*",
        "alojamento": "O Águas do Gerês Hotel, Termas & SPA dispõe de 55 quartos, incluindo 2 suites (com mini bar), todos equipados com ar condicionado, telefone directo e TV via satélite. Este hotel possui ainda o restaurante “Refúgio do Gerês”, onde poderá usufruir de requintadas iguarias de cozinha regional e internacional, um agradável bar, sala de jogos, salas de reuniões e salas com acesso à Internet Wireless.<br>Em frente, encontrará o novo Complexo Termas & Spa do Gerês, constituído pelo Balneário Termal recentemente remodelado e por um moderno Spa. O complexo disponibiliza diversos tratamentos e técnicas, tais como banho de imersão, hidromassagem, duche escocês, duche circular, duche Vichy, sauna, banho turco, massagens terapêuticas, drenagem linfática, tratamentos anti-celulite, inalações e nebulizações, ginásio, centro de nutrição, piscina dinâmica, jactos quentes, shiatsu e tratamentos de estética e beleza.<br>A 100 m do complexo termal e do hotel encontra-se o Parque das Termas, um parque recortado entre montanhas e atravessado pelo rio Gerês, dotado de lago, parque infantil, campo de ténis, ténis de mesa, bar esplanada, parque de merendas, circuito de manutenção e setas; no alto do parque, num recinto arborizado desta serra exuberante de vegetação, encontram-se as piscinas exteriores.<br>De referir ainda o serviço de recepção 24 h, Internet Wi-Fi nas áreas públicas, actividades e passeios na Serra, diversos programas de saúde e bem-estar, programas temáticos e estacionamento privado.",
        "itenerario": {
          "dia1": "Dia 1",
          "texto1": "Comparência no hotel escolhido para check-in. Tempo livre para atividades de carácter pessoal.",
          "dia2": "Dia 2",
          "texto2": "Tempo livre para atividades de carácter pessoal.",
          "dia3": "Dia 3",
          "texto3": "Tempo livre para atividades de carácter pessoal. Check-out do hotel. Fim de programa."
        },
        "condicoes": {
          "condicoesI": "- 2 noites de alojamento com pequeno-almoço;<br>- Tratamento VIP no quarto à chegada, composto por fruta e sumo de laranja;<br>- 1 jantar para duas pessoas (menu sugestão do chef - bebidas não incluídas);<br>- Entrada no Museu Etnográfico de Vilarinho das Furnas e Porta de entrada do PNPG (Campo do Gerês, onde poderá ver exposições sobre a etimologia de Vilarinho e o meio natural;<br>- 1 dia de SPA por pessoa: 1 hidromassagem \"Aromas da Serra\" (hidromassagem de relaxamento com aromas e essências da Serra do Gerês, para equilíbrio e bem-estar do corpo e mente), 1 massagem geral (ideal para diminuição da tensão muscular e combate ao stress, ansiedade e cansaço provocando uma sensação de bem-estar generalizada), 1 massagem de jatos quentes em colchão de água (massagem a seco realizada por suaves jatos de água morna, proporcionando uma sensação única de bem-estar);<br>- Uso de roupão e chinelos.",
          "condicoesE": "- Extras de caráter pessoal e tudo o que não estiver indicado como incluído no programa;<br>- Despesas de reserva por processo."
        }
      }
    },
    "grandesViagens": {
      "madagascar": {
        "titulo": "MADAGÁSCAR, ESSÊNCIAS DO SUL",
        "alojamento": "Não incluído no preço.",
        "itenerario": {
          "dia1": "Dia 1 Lisboa / Antananarivo",
          "texto1": "Comparência no aeroporto duas horas antes da partida. Assistência nas formalidades de embarque e partida em avião com destino à Antananarivo, via cidade europeia. Refeições a bordo. Chegada, formalidades aduaneiras e transporte para o hotel para instalação. Alojamento.",
          "dia2": "Dia 2 Antananarivo",
          "texto2": "Pequeno-almoço e visita à Cidadela de Ambohimanga (a colina azul) declarada Património da Humanidade pela UNESCO e que alberga os palácios e fortificações das últimas dinastias de monarquia Merina. De tarde, visita ao mercado de artesanato de La Digue, a maior e mais importante feira de artesanato da ilha e de África. Regresso à cidade para visitar os famosos bairro de Isoraka, Analakely e à estação de Soarano. Alojamento.",
          "dia3": "Dia 3 Antananarivo / Parque Nacional de Andasibe - Mantadia",
          "texto3": "Pequeno-almoço e partida para o Parque Nacional de Andasibe, com visita à reserva privada de Mandraka-Peyrieras em Marozevo onde poderemos observar camaleões, crocodilos e répteis em cativeiro, assim como outras espécies de fauna endémica da ilha. Chegada ao Parque de Andasibe, instalação no lodge e visita noturna à reserva privada.",
          "dia4": "Dia 4 Parque Nacional de Andasibe - Mantadia",
          "texto4": "Pequeno-almoço e, bem cedo, saída do hotel, onde realizaremos um passeio a pé (3 horas de duração) para observar o maior lémure da ilha, o célebre Indri-indri. Continuação para o Parque Nacional de Andasibe-Mantadia para visita a pé (2 horas de duração) pelo bosque tropical húmido mais belo do país. Regresso ao lodge. Alojamento.",
          "dia5": "Dia 5 Parque Nacional de Andasibe - Mantadia / Behenjy / Antsirabe",
          "texto5": "Pequeno-almoço cedo e continuação pelas terras altas entre a paisagem dos arrozais em socalco, recorrendo a famosa estrada RN7, em direção ao sul da ilha. Paragem na cidade de Behenjy, famosa por ser a cidade do Foie-gras (patê de fígado), onde poderemos degustar variadíssimas variedades de patê. Continuação para Ambatolampy para conhecer o curioso fabrico artesanal de jarras de alumínio. Chegada à cidade colonial de Antsirabe e instalação no hotel. Alojamento.",
          "dia6": "Dia 6 Antsirabe / Ambositra / Parque Nacional de Ranomafana",
          "texto6": "Pequeno-almoço no hotel. Em hora a determinar, saída com destino a Ambositra, considerada a capital do artesanato e situada a cerca de 105 kms de Antsirabe. Tempo livre para ver as lojinhas e para almoço (não incluído). Continuação para o Parque Nacional de Ranomafana. Instalação e alojamento.",
          "dia7": "Dia 7 Parque Nacional de Ranomafana / Sahambavy / Fianarantsoa",
          "texto7": "Pequeno-almoço e visita a pé ao Parque Nacional de Ranomafana, acompanhados por rangers do parque e onde poderemos observar várias espécies de répteis e lémures no seu habitat natural. Continuação até às plantações de chá de Sahambavy e ao seu agradável lago. Continuação para Fianarantsoa. Instalação e alojamento.",
          "dia8": "Dia 8 Fianarantsoa / Ambalavao / Anja / Parque Nacional de Isalo",
          "texto8": "Pequeno-almoço e saída em direção até à povoação de Ambalavao onde faremos a visita à fábrica de papel e à reserva natural de Anjà onde veremos lémures de espécie maki catta assim como camaleões. Almoço (não incluído) e continuação para o Parque Nacional de Isalo. Jantar e alojamento.",
          "dia9": "Dia 9 Parque Nacional de Isalo",
          "texto9": "Estadia no hotel em regime de meia pensão. Dia dedicado à visita do Parque Nacional de Isalo. Acompanhados por rangers do parque, faremos passeios através dos desfiladeiros e oásis até chegarmos a algumas cascatas. Aqui, encontraremos 77 espécies de aves, espécies várias de lémures. Este dia terminará com um por do sol inesquecível… Alojamento.",
          "dia10": "Dia 10 Parque Nacional de Isalo",
          "texto10": "Estadia no hotel em regime de meia pensão. Visita do parque Nacional de Isalo (trekking de nível fácil/médio durante todo o dia). Visita à conhecida região de Malazo, onde poderemos ver uma paisagem totalmente diferente do dia anterior, terminando o nosso passeio na piscina natural onde poderemos tomar banho. Regresso ao hotel para alojamento.",
          "dia11": "Dia 11 Parque Nacional de Isalo / Parque Nacional de Zombitze / Toliara / Ifaty",
          "texto11": "Pequeno-almoço e saída para sul observando, a caminho, os famosos túmulos de Mahafaly, em pedra esculpidos ou com pinturas de animais, casais e cenas da vida cotidiana. Visita ao Parque Nacional de Zombitse onde realizaremos um trekking simples para poder observar lémures da espécie Sifaka assim como camaleões da espécie Adansonia Za. Chegaremos à costa junto ao canal de Moçambique, nas praias de Ifaty. Instalação, jantar e alojamento.",
          "dia12": "Dia 12 Ifaty",
          "texto12": "Pequeno-almoço. Dia livre para desfrutar deste paraíso. Local e diretamente poderá comprar várias excursões: Visita à Reserva de Reinala, excursão à barreira de coral, um safari para observar baleias (junho a setembro), fazer snorkeling, etc. Jantar e alojamento.",
          "dia13": "Dia 13 Ifaty / Toliara / Antananarivo",
          "texto13": "Pequeno-almoço e transporte para o aeroporto de Toliara para voo doméstico de regresso a Antananarivo. Formalidades de embarque.",
          "dia14": "Dia 14 Antananarivo / Lisboa",
          "texto14": "Partida em avião com destino a Lisboa, via cidade europeia. Chegada.<br>Fim da Viagem."
        },
        "condicoesI": "-Passagem aérea em classe turística para o percurso Lisboa/Paris/Antananarivo/Paris/Lisboa com voos da AIR FRANCE (Classe L + N);<br>-Voo interno Toliara/Antananarivo;<br>-Franquia de bagagem;<br>-Taxas de aeroporto, segurança e combustível (no valor de 473€);<br>-Transporte entre aeroporto / hotel / aeroporto: 12 noites de estadia nos hotéis e/ou lodges da categoria escolhida;<br>-12 pequenos-almoços + 5 refeições;<br>-O circuito acima mencionado com guia/motorista de idioma espanhol;<br>-As visitas mencionadas no itinerário;<br>-Assistência ao embarque no aeroporto;<br>-Taxas hoteleiras, de serviço e IVA;<br>-Seguro multiviagens.",
        "condicoesE": "-Passaporte (validade mínima de 6 meses a contar da data da entrada no país);<br>-Visto de entrada em Madagáscar (obrigatório);<br>-Bebidas às refeições;<br>-Extras de caráter pessoal;<br>-Taxas de serviço em alguns hotéis e tudo o que não se encontra devidamente especificado como incluído no programa."
      },
      "americaCentral": {
        "titulo": "PANAMÁ - CIDADE E PRAIA - PLAYA BLANCA - OFERTA ESPECIAL",
        "alojamento": "Programa de 9 dias / 7 noites. <br>Hampton Inn APA + Playa Blanca: Sheraton Bijao TI",
        "itenerario": {
          "dia1": "Dia 1 Porto / Panamá",
          "texto1": "Comparência no aeroporto três horas antes da partida. Assistência nas formalidades de embarque e partida com destino à cidade do Panamá. Chegada e transporte para o hotel. Alojamento.",
          "dia2": "Dia 2 Panamá",
          "texto2": "Pequeno-almoço no hotel. Visita da cidade do Panamá. O “Casco Antiguo”, área colonial onde ficou assente a segunda Cidade do Panamá, e que se caracteriza pela sua arquitetura. Na calçada do Amador, encontra-se o quebra-mar construído para proteger o curso navegável do Canal do Panamá, com rochas extraídas das escavações do “Corte Culebra”. Para aqueles que desejam levar uma lembrança, há uma paragem no mercado de artesanato. De seguida dirigimo-nos à Estátua de Vasco Nuñez de Balboa, num passeio panorâmico da cidade moderna que nos leva à imponente arquitetura vanguardista do centro comercial e bancário do país. Visita às Eclusas de Miraflores do Canal do Panamá, considerada como a oitava maravilha do mundo moderno. Desse ponto observaremos como os navios se elevam ou descem em dois níveis, 16 metros na sua entrada ou saída do Canal. A visita é ainda complementada com os quatro salões de exposição. Restante dia livre. Alojamento.",
          "dia3": "Dia 3 Cidade de Panamá",
          "texto3": "Pequeno-almoço no hotel. Dia livre para atividades de carater pessoal. Alojamento.",
          "dia4": "Dia 4 Panamá / Playa Blanca",
          "texto4": "Pequeno-almoço no hotel. Partida em direção a Playa Blanca (1h30 aprox). Playa Blanca é uma zona de praia do pacífico e por isso de água tranquila e de temperatura agradável. Alojamento.",
          "dia5": "Dia 5 Panamá / Playa Blanca",
          "texto5": "Pequeno-almoço no hotel. Dias livres para atividades de caráter pessoal. Alojamento.",
          "dia6": "Dia 6 Panamá / Playa Blanca",
          "texto6": "Pequeno-almoço no hotel. Dias livres para atividades de caráter pessoal. Alojamento.",
          "dia7": "Dia 7 Panamá / Playa Blanca",
          "texto7": "Pequeno-almoço no hotel. Dias livres para atividades de caráter pessoal. Alojamento.",
          "dia8": "Dia 8 Playa Blanca / Panamá / Lisboa",
          "texto8": "Parte do dia livre. Em hora a determinar transporte para o aeroporto de Panamá. Partida com destino a Lisboa ou Porto, via Refeições e noite a bordo.",
          "dia9": "Dia 9 Porto",
          "texto9": "Chegada.<br> Fim da viagem."
        },
        "condicoesI": "-Passagem aérea em classe turistica (classe P - Promocional) Lisboa ou Porto/Panamá/Lisboa ou Porto via Madrid da Iberia;<br>-Transporte regular aeroporto / hotel / aeroporto;<br>-Taxas de aeroporto, segurança e combustível (€ 441), sujeitas às alterações legais até à data de emissão do bilhete;<br>-3 noites de estadia na cidade do Panamá em regime de APA + 4 noites de estadia em Playa Blanca em regime de TI;<br>-Meio dia de visita de cidade com Guia Local em idioma espanhol;<br>-Taxas hoteleiras, de serviço e IVA;<br>-Seguro Multiviagens.",
        "condicoesE": "-Outros que não mencionados;<br>-Despesas de reserva;<br>-Taxa de saída do Panamá: 40.00Usd por pessoa a pagar localmente"
      },
      "americaNorte": {
        "titulo": "EUA - MIAMI É VICIANTE - NÃO FIQUE EM CASA",
        "alojamento": "Miami Beach Resort & Spa",
        "itenerario": {
          "dia1": "Dia  1 Faro / Miami",
          "texto1": "Comparência no aeroporto três horas antes da partida. Assistência nas formalidades de embarque e partida com destino a Miami. Chegada e transporte para o hotel escolhido. Alojamento.",
          "dia2": "Dia 2 a 7 Miami",
          "texto2": "Estadia em regime de Só alojamento.<br>Dia 2: Saída do hotel para visitar esta cidade com destaque para Coconut Grove, a baixa de Miami, Miami Beach incluindo a zona de Art Deco, South Beach e Lincoln Road, centro da atividade noturna. Passagem ainda pela Ocean Drive e pela Avenida Washington. Regresso ao hotel e restante tarde livre.<br>Dia 3 a 7: Dias inteiramente livres para passeios a seu gosto, compras, praia e outras atividades de caráter pessoal.",
          "dia3": "Dia  8 Miami / Lisboa, Porto ou Faro",
          "texto3": "Estadia em regime de Só alojamento. Dia livre. Em hora a determinar localmente, transporte para o aeroporto. Formalidades de embarque e partida com destino a Lisboa ou Porto. Refeições e noite a bordo.",
          "dia4": "Dia  9 Faro",
          "texto4": "Chegada.<br>Fim de Viagem."
        },
        "condicoesI": "-Passagem aérea em classe U ou na nossa classe de allotment com a TAP PORTUGAL Lisboa/Miami/Lisboa;<br>-Franquia de bagagem: 1 mala até 23 Kg;<br>-Taxas de aeroporto, segurança e combustível (€379), sujeitas às alterações legais até à data de emissão do bilhete;<br>-7 noites de estadia em um dos hotéis acima indicados em regime de Só Alojamento;<br>-Transferes regulares do aeroporto para o Hotel e vice-versa;<br>-Meio dia de visita de cidade em idioma espanhol;<br>-Taxas hoteleiras, de serviço e IVA;<br>-Seguro Multiviagens.",
        "condicoesE": "-ESTA - Eletronic System for Travel Authorization (obrigatório para efeitos de entrada nos EUA);<br>-Extras de caráter pessoal;<br>-Tudo o que não estiver devidamente especificado em \"Serviços Incluídos\", Despesas de reserva (€29) por processo e não por pessoa;"
      },
      "asia": {
        "titulo": "ESSÊNCIAS DO SRI LANKA - NÃO FIQUE EM CASA",
        "alojamento": "Estadia em meia pensão. | 10  dia(s) <br>Colombo: Pegasus Reef",
        "itenerario": {
          "dia1": "Dia 1 Lisboa | Colombo",
          "texto1": "Comparência no aeroporto três horas antes da partida. Assistência nas formalidades de embarque e partida em avião com destino a Colombo, via Dubai. Refeições e noite a bordo.",
          "dia2": "Dia 2 Colombo | Negombo | Colombo",
          "texto2": "Chegada a Colombo e receção de boas vindas. Saída em direção a Negombo, cidade costeira de grande património colonial, maioritariamente cristã, com tantas igrejas que é conhecida como a \"Pequena Roma\". A cidade ergue-se em torno de uma lagoa onde desemboca o Canal de Hamilton, construído pelos holandeses para transporte de especiarias. Visita ao chamado Forte Holandês, cuja primeira construção foi de autoria dos portugueses para proteção da cidade e à Igreja Católica de Santa Maria.<br>Regresso a Colombo para jantar e alojamento no hotel.",
          "dia3": "Dia 3 e 4 Colombo | Pinnawala | Dambulla | Harabana ou Sigiriya",
          "texto3": "Depois do pequeno-almoço, saída em direção a Pinnawala para visitar o famoso orfanato de elefantes onde vivem mais de 60 elefantes muitos dos quais ainda bebés encontrados abandonados nas florestas. Poderemos admirar como são alimentados e vê-los depois seguir para um rio perto onde se banham. Continuação para Dambulla e visita aos célebres templos mandados construir na rocha pelo Rei Walagambahu no séc. I a.C. para homenagear Buda pela sua vitória contra os invasores indianos. Este complexo monástico contém mais de 150 imagens de Buda das quais se salienta a figura colossal de Buda com mais de 14 metros de altura esculpida na rocha e hoje Património Cultural da Humanidade. Continuação para Sigiriya ou Harabana. Jantar e alojamento no hotel. Restante dia livre.",
          "dia4": "Dia 5 Harabana ou Sigiriya | Matale | Kandy",
          "texto4": "Depois do pequeno-almoço, saída em direção a Matale. No caminho paragem em Nalanda Gedige, um antigo templo hindu construído entre os séculos VIII e X, no estilo arquitetónico da Dinastia Pallava. Matale é uma pequena cidade conhecida pelo clima acolhedor e pela fragância das suas especiarias, prosseguimos para visita aos jardins de especiarias de Matale, onde poderemos assistir a uma demostração da cozinha local e beneficiar de uma massagem de ayureda de 10 minutos nos jardins de Matale. Continuação para Kandy. À chegada assistiremos a um espectáculo de danças cingalesas. Jantar e alojamento no hotel.",
          "dia5": "Dia 6 Kandy | Plantação de Chá | Nuwara Eliya",
          "texto5": "Depois do pequeno-almoço, saída para visita da cidade de Kandy, considerada a mais bela e mais sagrada cidade do Sri Lanka, localizada no meio de montanhas e junto a um lago artificial bordeado de árvores debruçadas sobre as suas águas. Visita a pontos importantes como o Templo do Dente do Buda, uma das mais veneradas relíquias do Budismo, onde podemos admirar ainda o palácio, os jardins e o lago contornado, na sua maior parte pela cidade. Saída em direção a Nuwara Eliya e no percurso visita a uma plantação e a uma fábrica de chá (aqui é produzido um dos melhores chás do mundo). Chegada a Nuwara Eliya (significa em cingalês \"Cidade da luz\"), situada numa das mais belas regiões montanhosa do Sri Lanka a uma altitude de 1900 metros, tem um clima agradável e está rodeada de plantações de chá, cascatas de água, predominando muitas edificações do estilo colonial britânico. Jantar e alojamento no hotel.",
          "dia6": "Dia 7 Nuwara Eliya | Ella | Buduruwagala | Yala | Tissimaharama ou Yala",
          "texto6": "Depois do pequeno-almoço, saída em direção a Ella. Pelo caminho desfrutará de paisagens encantadoras, com uma vista panorâmica da cascata de Ravana. Continuação para Buduruwagala, antigo templo budista cujo nome significa \"rochedo das escrituras budistas\". Data dos seculos IV e V, mantendo na atualidade um conjunto de sete esculturas em que se destaca a central com quase 16 metros de altura. Continuação para o Parque Nacional de Yala para fazer um safari em jipe. Este parque é o maior do Sri Lanka e é habitat de espécies como elefantes, búfalos selvagens, leopardos, ursos, veados e crocodilos.<br>Jantar e alojamento no hotel.",
          "dia7": "Dia 8 Tissimaharama ou Yala | Weligama | Galle | Koggala ou Hikkaduwa",
          "texto7": "Depois do pequeno-almoço, saída em direção a Weligama, com paragem numa zona costeira para assistir à pesca peculiar praticada pelos pescadores locais. Este método de pesca tem servido de atração e inspiração a muitos artistas e fotógrafos.<br>Continuamos depois para Galle, originalmente construído pelos portugueses que durante 153 anos dominaram o país a que chamaram Ceilão, porto principal do antigo Ceilão e conhecido pela sua renda (feita à mão). Visita à fortaleza, Património Mundial da Humanidade pela UNESCO, tendo no interior igrejas e a mesquita de Meera. Continuação para Koggala ou Hikkaduwa, ambas localizadas na costa do Índico. Jantar e alojamento no hotel.",
          "dia8": "Dia 9 Koggala ou Hikkaduwa | Colombo",
          "texto8": "Pequeno-almoço no hotel (acesso ao quarto até ás 12h00).<br>Em hora a determinar, transporte para Colombo, para o aeroporto. Formalidades de embarque.",
          "dia9": "Dia  10 Colombo | Lisboa",
          "texto9": "Pequeno-almoço no hotel (acesso ao quarto até ás 12h00).<br>Em hora a determinar, transporte para Colombo, para o aeroporto. Formalidades de embarque."
        },
        "condicoesI": "-Passagem aérea em classe U ou na nossa classe de allotment com a TAP PORTUGAL Lisboa/Miami/Lisboa;<br>-Franquia de bagagem: 1 mala até 23 Kg;<br>-Taxas de aeroporto, segurança e combustível (€379), sujeitas às alterações legais até à data de emissão do bilhete;<br>-7 noites de estadia em um dos hotéis acima indicados em regime de Só Alojamento;<br>-Transferes regulares do aeroporto para o Hotel e vice-versa;<br>-Meio dia de visita de cidade em idioma espanhol;<br>-Taxas hoteleiras, de serviço e IVA;<br>-Seguro Multiviagens.",
        "condicoesE": "-Passaporte e Visto;<br>-Extras de caráter pessoal (refeições não mencionadas, bebidas, lavandaria, telefone, etc);<br>-Gratificações aos guias e motoristas;<br>-Tudo o que não estiver especificado em \" Serviços Incluídos\"."
      },
      "americaSul": {
        "titulo": "COLOMBIA, O PAÍS DO EL DORADO",
        "alojamento": "Não incluído no preço.",
        "itenerario": {
          "dia1": "Dia 1 Porto / Bogotá",
          "texto1": "Comparência no aeroporto três horas antes da partida. Assistência nas formalidades de embarque e partida com destino à Bogotá via Madrid. À chegada transporte para o hotel. Alojamento.",
          "dia2": "Dia 2 Bogotá",
          "texto2": "Pequeno-almoço no hotel. Manhã dedicada à visita da capital da Colômbia, passando pelos principais pontos histórico-culturais da cidade: Teatro Colón, Palácio de San Carlos onde atualmente se encontra o Ministério dos Negócios Estrangeiros, a Praça Bolivar, a Catedral, o Capitólio e a Prefeitura Mayor. Visita ainda à famosa exposição Botero. Localizada junto à Casa da Moeda (encerra à 2ª e 3ªfeira). Tarde livre. Alojamento.",
          "dia3": "Dia 3 Bogotá",
          "texto3": "Pequeno-almoço no hotel. Dia inteiramente livre para desfrutar desta fantástica cidade. Possibilidade de realizar várias visitas opcionais (não incluídas), Recomendamos uma visita da lagoa de Guatavita Zipaquirá. Alojamento no hotel.",
          "dia4": "Dia 4 Bogotá / Cartagena das Índias",
          "texto4": "Pequeno-almoço no hotel, em hora a determinar localmente, transporte ao aeroporto e partida com destino a Cartagena. À chegada transporte para o hotel. Alojamento.",
          "dia5": "Dia 5 Cartagena das Índias",
          "texto5": "Pequeno-almoço no hotel. Manhã livre para atividades de caracter pessoal. Pela tarde saída para visita da cidade de Cartagena, considerada uma das mais belas cidades do mundo. Passeio panorâmico pelos principais bairros da cidade: Bocagrande, Castillogrande e Manga. Passeio a pé pela cidade muralhada e pelas suas ruas e praças coloridas. Visita ao Castelo de São Filipe e subida até ao “Cerro da Popa” onde terá uma vista panorâmica sobre a cidade e se visita o Convento. <br>Nota: Este passeio é em base regular e em autocarro típico, “Chiva”, sem ar condicionado. Para passageiros hospedados no Hotel Sonesta, os mesmos deverão apresentar-se no Hotel As América em hora a informar localmente. Alojamento.",
          "dia6": "Dia 6 Cartagena das Índias / Ilhas do Rosário / Cartagena das Índias",
          "texto6": "Pequeno-almoço no hotel. De manhã cedo, transporte ao porto de Cartagena e saída em lancha rápida para as paradisíacas Ilhas do Rosário, arquipélago de pequenas ilhas de coral como as contas de um rosário. A primeira paragem é feita no Parque Nacional das Ilhas do Rosário para visita do aquário San Martin (entrada não incluída - aprox 10.00Usd). Continuação da visita panorâmica pelas diversas ilhas que formam este arquipélago. Paragem numas das ilhas para almoço típico e tempo livre para desfrutar das magníficas praias. Regresso a Cartagena ao final da tarde. Transporte ao hotel. Alojamento.",
          "dia7": "Dia 7 Cartagena das Índias / Bogotá / Lisboa ou Porto",
          "texto7": "Pequeno-almoço no hotel. Em hora a determinar localmente, transporte ao aeroporto e partida com destino a Bogotá. Voo de ligação com destino a Lisboa ou Porto via Madrid. Refeições e noite a bordo.",
          "dia8": "Dia 8 Lisboa ou Porto",
          "texto8": "Chegada.<br>Fim da viagem."
        },
        "condicoesI": "-Passagem aérea em classe U ou na nossa classe de allotment com a TAP PORTUGAL Lisboa/Miami/Lisboa;<br>-Franquia de bagagem: 1 mala até 23 Kg;<br>-Taxas de aeroporto, segurança e combustível (€379), sujeitas às alterações legais até à data de emissão do bilhete;<br>-7 noites de estadia em um dos hotéis acima indicados em regime de Só Alojamento;<br>-Transferes regulares do aeroporto para o Hotel e vice-versa;<br>-Meio dia de visita de cidade em idioma espanhol;<br>-Taxas hoteleiras, de serviço e IVA;<br>-Seguro Multiviagens.",
        "condicoesE": "-Passaporte e Visto;<br>-Extras de caráter pessoal (refeições não mencionadas, bebidas, lavandaria, telefone, etc);<br>-Gratificações aos guias e motoristas;<br>-Tudo o que não estiver especificado em \" Serviços Incluídos\"."
      },
      "dubai": {
        "titulo": "SUPER DUBAI",
        "alojamento": "6  dia(s) <br>Hotéis 3 estrelas.<br>Venha connosco aproveitar esta super viagem ao Dubai. Por 6 dias / 4 noites aproveite para conhecer este oásis do deserto. Reserve já",
        "itenerario": {
          "dia1": "Dia 1 Lisboa > Dubai",
          "texto1": "Comparência no aeroporto duas horas antes da partida. Assistência nas formalidades de embarque. Partida com destino ao Dubai. Refeições e noite a bordo",
          "dia2": "Dia 2 a 5 Dubai",
          "texto2": "Chegada e transporte para o hotel (acesso ao quarto a partir das 14h00).<br>Dia livre para passeios a seu gosto.",
          "dia3": "Dia 6 Dubai > Lisboa",
          "texto3": "Pequeno-almoço no hotel. Em hora a combinar localmente, transporte para o aeroporto e formalidades de embarque. Partida com destino a Lisboa. Chegada. <br>Fim da Viagem."
        },
        "condicoesI": "-Passagem aérea em classe U ou na nossa classe de allotment com a TAP PORTUGAL Lisboa/Miami/Lisboa;<br>-Franquia de bagagem: 1 mala até 23 Kg;<br>-Taxas de aeroporto, segurança e combustível (€379), sujeitas às alterações legais até à data de emissão do bilhete;<br>-7 noites de estadia em um dos hotéis acima indicados em regime de Só Alojamento;<br>-Transferes regulares do aeroporto para o Hotel e vice-versa;<br>-Meio dia de visita de cidade em idioma espanhol;<br>-Taxas hoteleiras, de serviço e IVA;<br>-Seguro Multiviagens.",
        "condicoesE": "-Passaporte e Visto;<br>-Extras de caráter pessoal (refeições não mencionadas, bebidas, lavandaria, telefone, etc);<br>-Gratificações aos guias e motoristas;<br>-Tudo o que não estiver especificado em \" Serviços Incluídos\"."
      },
      "novaiorque": {
        "titulo": "EUA - NOVA IORQUE É MÁGICA - PARTIDAS LISBOA - NÃO FIQUE EM CASA",
        "alojamento": "Não incluído no preço.",
        "itenerario": {
          "dia1": "Dia 1 Lisboa / Nova Iorque",
          "texto1": "Comparência no aeroporto três horas antes da partida. Assistência nas formalidades de embarque e partida com destino a Nova Iorque. Chegada e transporte para o hotel escolhido.",
          "dia2": "Dia 2 Nova Iorque",
          "texto2": "Estadia em regime de alojamento.<br>Dias inteiramente livres para passeios a seu gosto, compras e outras actividades de carácter pessoal.",
          "dia3": "Dia 5 Nova Iorque / Lisboa",
          "texto3": "Estadia em regime de alojamento. Parte do dia livre. Em hora a determinar localmente, transporte para o aeroporto. Formalidades de embarque e partida com destino ao Porto ou Lisboa. Refeições e noite a bordo.",
          "dia4": "Dia 6 Lisboa",
          "texto4": "Chegada.<br>Fim da viagem."
        },
        "condicoesI": "-Passagem aérea em classe U ou na nossa classe de allotment com a TAP PORTUGAL Lisboa/Miami/Lisboa;<br>-Franquia de bagagem: 1 mala até 23 Kg;<br>-Taxas de aeroporto, segurança e combustível (€379), sujeitas às alterações legais até à data de emissão do bilhete;<br>-7 noites de estadia em um dos hotéis acima indicados em regime de Só Alojamento;<br>-Transferes regulares do aeroporto para o Hotel e vice-versa;<br>-Meio dia de visita de cidade em idioma espanhol;<br>-Taxas hoteleiras, de serviço e IVA;<br>-Seguro Multiviagens.",
        "condicoesE": "-Passaporte e Visto;<br>-Extras de caráter pessoal (refeições não mencionadas, bebidas, lavandaria, telefone, etc);<br>-Gratificações aos guias e motoristas;<br>-Tudo o que não estiver especificado em \" Serviços Incluídos\"."
      },
      "oriente": {
        "titulo": "ESSÊNCIAS DA JORDÂNIA",
        "alojamento": "Não incluído no preço.",
        "itenerario": {
          "dia1": "Dia 1 Lisboa / Amman",
          "texto1": "Comparência no aeroporto duas horas antes da partida. Assistência nas formalidades de embarque e partida com destino a Amman, via Istambul. Refeições a bordo. Chegada e transporte para o hotel. Alojamento.",
          "dia2": "Dia 2 e 3 Amman",
          "texto2": "Pequeno-almoço. Dia livre para desfrutar da capital jordana. <br>Possibilidade de efectuar uma visita panorâmica de Ammam, Jerash e Ajlun (opcional, não incluída). Jantar e alojamento no hotel.",
          "dia3": "Dia 4 Amman / Madaba / Monte Nebo / Kerak / Petra",
          "texto3": "Após o pequeno-almoço, saída para Madaba. Visita da igreja de São Jorge, onde se encontra o mosaico do séc. VI que representa o mapa mais antigo do mundo que se conhece da Terra Santa. Continuação até ao Monte Nebo, local onde Moisés viu pela primeira vez a terra prometida. Desfrute da maravilhosa vista da terra prometida e da igreja bizantina, incluindo a colecção de mosaicos. Tempo ainda para visitar os grandes Castelos de Kerak, e continuação para Petra. Chegada a Petra. Jantar e alojamento.",
          "dia4": "Dia 5 Petra",
          "texto4": "Pequeno-almoço no hotel. Dia livre para passeios a seu gosto. <br>Possibilidade de efectuar uma visita arqueológica a Petra, a cidade perdida dos Nabateus. Esta maravilha foi construída na rocha entre os anos 400 e 300 a.C. (opcional, não incluída). Jantar e alojamento no hotel.",
          "dia5": "Dia 6 Petra / Wadi Rum / Amman",
          "texto5": "Pequeno-almoço. Saída até Wadi Rum, o Vale da Lua, rodeado de uma inesquecível paisagem de montanhas de cor púrpura. Visita pelo deserto em veículo 4X4, conduzido por beduínos (aproximadamente 2h00). Continuação para Amman. Jantar e alojamento no hotel.",
          "dia6": "Dia 7 Amman / Lisboa",
          "texto6": "Chegada. <br>Fim da Viagem."
        },
        "condicoesI": "-Passagem aérea em classe U ou na nossa classe de allotment com a TAP PORTUGAL Lisboa/Miami/Lisboa;<br>-Franquia de bagagem: 1 mala até 23 Kg;<br>-Taxas de aeroporto, segurança e combustível (€379), sujeitas às alterações legais até à data de emissão do bilhete;<br>-7 noites de estadia em um dos hotéis acima indicados em regime de Só Alojamento;<br>-Transferes regulares do aeroporto para o Hotel e vice-versa;<br>-Meio dia de visita de cidade em idioma espanhol;<br>-Taxas hoteleiras, de serviço e IVA;<br>-Seguro Multiviagens.",
        "condicoesE": "-Passaporte e Visto;<br>-Extras de caráter pessoal (refeições não mencionadas, bebidas, lavandaria, telefone, etc);<br>-Gratificações aos guias e motoristas;<br>-Tudo o que não estiver especificado em \" Serviços Incluídos\"."
      }
    }
  }
}