-------------------------------------------------------------------------------
Test set: entities.AgenciaTest
-------------------------------------------------------------------------------
Tests run: 13, Failures: 0, Errors: 0, Skipped: 0, Time elapsed: 0.016 sec
