<?xml version="1.0" encoding="UTF-8" ?>
<testsuite tests="21" failures="0" name="entities.UtilizadorTest" time="0.005" errors="0" skipped="0">
  <properties>
    <property name="java.runtime.name" value="Java(TM) SE Runtime Environment"/>
    <property name="sun.boot.library.path" value="/home/sarafurao/jdk1.8.0_73/jre/lib/amd64"/>
    <property name="java.vm.version" value="25.73-b02"/>
    <property name="java.vm.vendor" value="Oracle Corporation"/>
    <property name="java.vendor.url" value="http://java.oracle.com/"/>
    <property name="path.separator" value=":"/>
    <property name="guice.disable.misplaced.annotation.check" value="true"/>
    <property name="java.vm.name" value="Java HotSpot(TM) 64-Bit Server VM"/>
    <property name="file.encoding.pkg" value="sun.io"/>
    <property name="user.country" value="US"/>
    <property name="sun.java.launcher" value="SUN_STANDARD"/>
    <property name="sun.os.patch.level" value="unknown"/>
    <property name="java.vm.specification.name" value="Java Virtual Machine Specification"/>
    <property name="user.dir" value="/home/sarafurao/oviajante/Final/mavenViajanteTQS"/>
    <property name="java.runtime.version" value="1.8.0_73-b02"/>
    <property name="java.awt.graphicsenv" value="sun.awt.X11GraphicsEnvironment"/>
    <property name="java.endorsed.dirs" value="/home/sarafurao/jdk1.8.0_73/jre/lib/endorsed"/>
    <property name="os.arch" value="amd64"/>
    <property name="java.io.tmpdir" value="/tmp"/>
    <property name="line.separator" value="
"/>
    <property name="java.vm.specification.vendor" value="Oracle Corporation"/>
    <property name="os.name" value="Linux"/>
    <property name="maven.ext.class.path" value="/home/sarafurao/netbeans-8.1/java/maven-nblib/netbeans-eventspy.jar"/>
    <property name="classworlds.conf" value="/home/sarafurao/netbeans-8.1/java/maven/bin/m2.conf"/>
    <property name="sun.jnu.encoding" value="UTF-8"/>
    <property name="java.library.path" value="/home/sarafurao/jdk1.8.0_73/jre/lib/amd64:/home/sarafurao/jdk1.8.0_73/jre/lib/i386::/usr/java/packages/lib/amd64:/usr/lib64:/lib64:/lib:/usr/lib"/>
    <property name="java.specification.name" value="Java Platform API Specification"/>
    <property name="java.class.version" value="52.0"/>
    <property name="sun.management.compiler" value="HotSpot 64-Bit Tiered Compilers"/>
    <property name="os.version" value="4.2.0-27-generic"/>
    <property name="user.home" value="/home/sarafurao"/>
    <property name="user.timezone" value="Europe/Lisbon"/>
    <property name="java.awt.printerjob" value="sun.print.PSPrinterJob"/>
    <property name="file.encoding" value="UTF-8"/>
    <property name="java.specification.version" value="1.8"/>
    <property name="user.name" value="sarafurao"/>
    <property name="java.class.path" value="/home/sarafurao/netbeans-8.1/java/maven/boot/plexus-classworlds-2.4.jar"/>
    <property name="java.vm.specification.version" value="1.8"/>
    <property name="sun.arch.data.model" value="64"/>
    <property name="java.home" value="/home/sarafurao/jdk1.8.0_73/jre"/>
    <property name="sun.java.command" value="org.codehaus.plexus.classworlds.launcher.Launcher -Dmaven.ext.class.path=/home/sarafurao/netbeans-8.1/java/maven-nblib/netbeans-eventspy.jar clean install"/>
    <property name="java.specification.vendor" value="Oracle Corporation"/>
    <property name="user.language" value="en"/>
    <property name="awt.toolkit" value="sun.awt.X11.XToolkit"/>
    <property name="java.vm.info" value="mixed mode"/>
    <property name="java.version" value="1.8.0_73"/>
    <property name="java.ext.dirs" value="/home/sarafurao/jdk1.8.0_73/jre/lib/ext:/usr/java/packages/lib/ext"/>
    <property name="securerandom.source" value="file:/dev/./urandom"/>
    <property name="sun.boot.class.path" value="/home/sarafurao/jdk1.8.0_73/jre/lib/resources.jar:/home/sarafurao/jdk1.8.0_73/jre/lib/rt.jar:/home/sarafurao/jdk1.8.0_73/jre/lib/sunrsasign.jar:/home/sarafurao/jdk1.8.0_73/jre/lib/jsse.jar:/home/sarafurao/jdk1.8.0_73/jre/lib/jce.jar:/home/sarafurao/jdk1.8.0_73/jre/lib/charsets.jar:/home/sarafurao/jdk1.8.0_73/jre/lib/jfr.jar:/home/sarafurao/jdk1.8.0_73/jre/classes"/>
    <property name="java.vendor" value="Oracle Corporation"/>
    <property name="maven.home" value="/home/sarafurao/netbeans-8.1/java/maven"/>
    <property name="file.separator" value="/"/>
    <property name="java.vendor.url.bug" value="http://bugreport.sun.com/bugreport/"/>
    <property name="sun.cpu.endian" value="little"/>
    <property name="sun.io.unicode.encoding" value="UnicodeLittle"/>
    <property name="sun.desktop" value="gnome"/>
    <property name="sun.cpu.isalist" value=""/>
  </properties>
  <testcase classname="entities.UtilizadorTest" name="testSetPassword" time="0"/>
  <testcase classname="entities.UtilizadorTest" name="testGetReservaCollection" time="0"/>
  <testcase classname="entities.UtilizadorTest" name="testGetPassword" time="0"/>
  <testcase classname="entities.UtilizadorTest" name="testGetEmail" time="0"/>
  <testcase classname="entities.UtilizadorTest" name="testGetId" time="0"/>
  <testcase classname="entities.UtilizadorTest" name="testSetId" time="0"/>
  <testcase classname="entities.UtilizadorTest" name="testToString" time="0"/>
  <testcase classname="entities.UtilizadorTest" name="testSetTelemovel" time="0.001"/>
  <testcase classname="entities.UtilizadorTest" name="testGetUtilizador" time="0"/>
  <testcase classname="entities.UtilizadorTest" name="testGetData" time="0"/>
  <testcase classname="entities.UtilizadorTest" name="testGetNome" time="0"/>
  <testcase classname="entities.UtilizadorTest" name="testSetUtilizador" time="0"/>
  <testcase classname="entities.UtilizadorTest" name="testGetBlogentryCollection" time="0.002"/>
  <testcase classname="entities.UtilizadorTest" name="testHashCode" time="0.001"/>
  <testcase classname="entities.UtilizadorTest" name="testEquals" time="0"/>
  <testcase classname="entities.UtilizadorTest" name="testSetData" time="0"/>
  <testcase classname="entities.UtilizadorTest" name="testSetNome" time="0"/>
  <testcase classname="entities.UtilizadorTest" name="testGetTelemovel" time="0"/>
  <testcase classname="entities.UtilizadorTest" name="testSetReservaCollection" time="0"/>
  <testcase classname="entities.UtilizadorTest" name="testSetBlogentryCollection" time="0.001"/>
  <testcase classname="entities.UtilizadorTest" name="testSetEmail" time="0"/>
</testsuite>