boundary/service/ReservaFacadeRESTTest.class
entities/UtilizadorTest.class
entities/BlogentryTest.class
entities/ReservaTest.class
boundary/service/BlogentryFacadeRESTTest.class
entities/AgenciaTest.class
boundary/service/PacoteviagemFacadeRESTTest.class
entities/PacoteviagemTest.class
boundary/service/AgenciaFacadeRESTTest.class
boundary/service/UtilizadorFacadeRESTTest.class
